12 Prior Neural Pain Signature Responses – A2CPS Starter Kits
…
open_dataset("data/signatures-by-run") |>
  filter(signature %in% c("grouppred_cvpcr", "137subjmap_weighted_mean")) |>
  filter(task == "cuff", run == 1) |>
  select(signature, value = correlation, sub, ses) |>
  collect() |>
  pivot_wider(names_from = signature) |>
  rename(
    SIIPS1 = `137subjmap_weighted_mean`,
    NPS = `grouppred_cvpcr`
  )

# A tibble: 716 × 4
     sub ses     SIIPS1      NPS
   <int> <chr>    <dbl>    <dbl>
 1 10003 V1    -0.00162  0.0331 
 2 10010 V1    -0.0611  -0.0200 
 3 10011 V1    -0.00652 -0.0740 
 4 10008 V1    -0.0407  -0.0581 
 5 10013 V1    -0.0279   0.0234 
 6 10014 V1    -0.00120 -0.0146 
 7 10017 V1    -0.0165   0.0263 
 8 10015 V1    -0.0576  -0.0178 
 9 10020 V1    -0.0103  -0.0530 
10 10023 V1     0.0116  -0.00789
# ℹ 706 more rows
…
