…
open_dataset("data/signature-by-run") |> 
  filter(signature %in% c("grouppred_cvpcr", "137subjmap_weighted_mean")) |>
  filter(task=="cuff", run==1) |>
  select(signature, value=correlation, sub, ses) |>
  collect() |>
  pivot_wider(names_from = signature) |>
  rename(
    SIIPS1=`137subjmap_weighted_mean`,
    NPS=`grouppred_cvpcr`)

```

```bash
# A tibble: 440 × 4
     sub ses    SIIPS1       NPS
   <int> <chr>   <dbl>     <dbl>
 1 10008 V1    -0.0797 -0.000435
 2 10003 V1    -0.0260  0.0142  
 3 10011 V1    -0.0381 -0.00112 
 4 10010 V1    -0.0630  0.00221 
 5 10013 V1    -0.0422  0.00809 
 6 10014 V1    -0.0377  0.00990 
 7 10017 V1    -0.0390  0.0237  
 8 10015 V1    -0.0701  0.00553 
 9 10020 V1    -0.0509 -0.000624
10 10023 V1    -0.0160  0.00820 
# ℹ 430 more rows
# ℹ Use `print(n = ...)` to see more rows
```
…
