4 Brain Age – A2CPS Starter Kits
…
$ cat sub-10003/ses-V1/sub-10003_ses-V1_T1w.tsv 
File    brain.predicted_age lower.CI    upper.CI
sub-10003_ses-V1_T1w    73.6037 72.9683 74.2392

Here is an example of how these files could be loaded using R.

# list all files
files <- fs::dir_ls("data/brainager", glob = "*T1w.tsv", recurse = TRUE)

# read in all tsvs
ages <- readr::read_tsv(files)
ages

# A tibble: 1,017 × 4
   File                 brain.predicted_age lower.CI upper.CI
   <chr>                              <dbl>    <dbl>    <dbl>
 1 sub-10003_ses-V1_T1w                73.6     73.0     74.2
 2 sub-10005_ses-V1_T1w                65.7     64.6     66.9
 3 sub-10008_ses-V1_T1w                75.5     74.7     76.3
 4 sub-10010_ses-V1_T1w                44.6     42.6     46.5
 5 sub-10011_ses-V1_T1w                40.5     38.5     42.4
 6 sub-10013_ses-V1_T1w                72.1     71.5     72.8
 7 sub-10014_ses-V1_T1w                42.3     41.7     42.9
 8 sub-10015_ses-V1_T1w                55.0     53.2     56.8
 9 sub-10017_ses-V1_T1w                57.9     57.2     58.7
10 sub-10020_ses-V1_T1w                59.2     58.6     59.7
# ℹ 1,007 more rows

The column File identifies the anatomical image that was used for to make the prediction. When working with other A2CPS data, it may be helpful to extract the subject ID.

ages_with_sub <- ages |>
  dplyr::mutate(
    sub = stringr::str_extract(File, "[[:digit:]]{5}") |> as.integer(),
  )
ages_with_sub

# A tibble: 1,017 × 5
   File                 brain.predicted_age lower.CI upper.CI   sub
   <chr>                              <dbl>    <dbl>    <dbl> <int>
 1 sub-10003_ses-V1_T1w                73.6     73.0     74.2 10003
 2 sub-10005_ses-V1_T1w                65.7     64.6     66.9 10005
 3 sub-10008_ses-V1_T1w                75.5     74.7     76.3 10008
 4 sub-10010_ses-V1_T1w                44.6     42.6     46.5 10010
 5 sub-10011_ses-V1_T1w                40.5     38.5     42.4 10011
 6 sub-10013_ses-V1_T1w                72.1     71.5     72.8 10013
 7 sub-10014_ses-V1_T1w                42.3     41.7     42.9 10014
 8 sub-10015_ses-V1_T1w                55.0     53.2     56.8 10015
 9 sub-10017_ses-V1_T1w                57.9     57.2     58.7 10017
10 sub-10020_ses-V1_T1w                59.2     58.6     59.7 10020
# ℹ 1,007 more rows
…
baseline_ages <- read_csv(
  "data/demographics/demographics-2025-01-10.csv",
  col_select = c("record_id", "age")
)

brainage <- ages_with_sub |>
  left_join(baseline_ages, by = join_by(sub == record_id)) |>
  mutate(
    brain_age_gap = brain.predicted_age - age
  ) |>
  filter(!is.na(age)) # age not available for all participants
brainage

# A tibble: 996 × 7
   File          brain.predicted_age lower.CI upper.CI   sub   age brain_age_gap
   <chr>                       <dbl>    <dbl>    <dbl> <dbl> <dbl>         <dbl>
 1 sub-10003_se…                73.6     73.0     74.2 10003    73         0.604
 2 sub-10005_se…                65.7     64.6     66.9 10005    58         7.73 
 3 sub-10008_se…                75.5     74.7     76.3 10008    73         2.49 
 4 sub-10010_se…                44.6     42.6     46.5 10010    64       -19.4  
 5 sub-10011_se…                40.5     38.5     42.4 10011    54       -13.5  
 6 sub-10013_se…                72.1     71.5     72.8 10013    71         1.14 
 7 sub-10014_se…                42.3     41.7     42.9 10014    45        -2.70 
 8 sub-10015_se…                55.0     53.2     56.8 10015    65        -9.98 
 9 sub-10017_se…                57.9     57.2     58.7 10017    56         1.95 
10 sub-10020_se…                59.2     58.6     59.7 10020    53         6.17 
# ℹ 986 more rows
…
